/* XPM */
static char *V[] = {
/* columns rows colors chars-per-pixel */
"24 24 3 1",
"*	c #0000FFFFFFFF",
".	c #000077777777",
" 	c #000000000000",
/* pixels */
"  ****.          .****  ",
"  ** **          ** **  ",
"  .* **          ** *.  ",
"   ** *.        .* **   ",
"   ** **        ** **   ",
"   .* **        ** *.   ",
"    ** *.      .* **    ",
"    ** **      ** **    ",
"    .* **      ** *.    ",
"     ** *.    .* **     ",
"     ** **    ** **     ",
"     .* **    ** *.     ",
"      ** *.  .* **      ",
"      ** **  ** **      ",
"      .* **  ** *.      ",
"       ** *..* **       ",
"       ** **** **       ",
"       .* **** *.       ",
"        ** ** **        ",
"        ** ** **        ",
"        .* ** *.        ",
"         **  **         ",
"         ******         ",
"         .****.         "
};
